<?xml version="1.0" encoding="utf-8"?>
<!-- Generator: Adobe Illustrator 22.0.1, SVG Export Plug-In . SVG Version: 6.00 Build 0)  -->
<svg version="1.1" id="Layer_1" xmlns="http://www.w3.org/2000/svg" xmlns:xlink="http://www.w3.org/1999/xlink" x="0px" y="0px"
	 viewBox="0 0 595.3 297.6" style="enable-background:new 0 0 595.3 297.6;" xml:space="preserve">
<style type="text/css">
	.st0{fill:#F1F1F1;}
</style>
<polygon class="st0" points="297.6,297.6 0,0 5.8,0 297.6,291.9 589.5,0 595.3,0 "/>
</svg>