<?xml version="1.0" encoding="utf-8"?>
<!-- Generator: Adobe Illustrator 21.0.2, SVG Export Plug-In . SVG Version: 6.00 Build 0)  -->
<svg version="1.1" id="Layer_1" xmlns="http://www.w3.org/2000/svg" xmlns:xlink="http://www.w3.org/1999/xlink" x="0px" y="0px"
	 width="1115px" height="1767px" viewBox="0 0 1115 1767" style="enable-background:new 0 0 1115 1767;" xml:space="preserve">
<style type="text/css">
	.st0{fill:#FFFFFF;}
</style>
<g>
	<path class="st0" d="M1066.7,769.9H48.4C21.7,769.9,0,748.3,0,721.6V47.8C0,21.1,21.7-0.5,48.4-0.5h1018.3
		c26.7,0,48.3,21.6,48.3,48.3v673.8C1115,748.3,1093.4,769.9,1066.7,769.9z M96.7,673.2h921.6V96.2H96.7V673.2z"/>
	<path class="st0" d="M557.3,605.1c-12.8,0-25.1-5.1-34.2-14.2L14.9,82.7C-4,63.8-4,33.2,14.9,14.3c18.9-18.9,49.5-18.9,68.4,0
		l474,474l460.6-461.5c18.9-18.9,49.5-18.9,68.4-0.1c18.9,18.9,18.9,49.5,0.1,68.4L591.5,590.9C582.4,600,570.1,605.1,557.3,605.1
		C557.3,605.1,557.3,605.1,557.3,605.1z"/>
	<path class="st0" d="M49.1,769.2c-12.4,0-24.7-4.7-34.2-14.2c-18.9-18.9-18.9-49.5,0-68.4l336.2-336.2c18.9-18.9,49.5-18.9,68.4,0
		c18.9,18.9,18.9,49.5,0,68.4L83.3,755.1C73.8,764.5,61.4,769.2,49.1,769.2z"/>
	<path class="st0" d="M1066.2,768.6c-12.4,0-24.7-4.7-34.2-14.2L695.8,418.2c-18.9-18.9-18.9-49.5,0-68.4
		c18.9-18.9,49.5-18.9,68.4,0L1100.4,686c18.9,18.9,18.9,49.5,0,68.4C1090.9,763.8,1078.6,768.6,1066.2,768.6z"/>
</g>
<path class="st0" d="M530.4,1767c-12.8,0-25.1-5.1-34.1-14.1l-145-144.5c-18.9-18.8-19-49.5-0.1-68.4c18.8-18.9,49.5-19,68.4-0.1
	l110.7,110.3l292.6-294.7c18.8-18.9,49.4-19.1,68.4-0.2c18.9,18.8,19.1,49.4,0.2,68.4l-326.7,329.1c-9,9.1-21.3,14.2-34.2,14.3
	C530.5,1767,530.5,1767,530.4,1767z"/>
</svg>
