<?xml version="1.0" encoding="utf-8"?>
<!-- Generator: Adobe Illustrator 19.2.1, SVG Export Plug-In . SVG Version: 6.00 Build 0)  -->
<svg version="1.1" id="Layer_1" xmlns="http://www.w3.org/2000/svg" xmlns:xlink="http://www.w3.org/1999/xlink" x="0px" y="0px"
	 viewBox="0 0 500 500" style="enable-background:new 0 0 500 500;" xml:space="preserve">
<style type="text/css">
	.st0{fill:#161616;}
	.st1{fill:#FFFFFF;}
</style>
<circle class="st0" cx="250" cy="250" r="250"/>
<g>
	<g>
		<path class="st1" d="M82.9,161.8c-5.5-5.5-10-3.6-10,4.2v184.5c0,7.8,4.5,9.7,10,4.2l86.4-86.4c5.5-5.5,5.5-14.5,0-20L82.9,161.8z
			"/>
	</g>
	<g>
		<path class="st1" d="M82.9,145.4c-5.5-5.5-3.6-10,4.2-10h200.8c7.8,0,14.2,6.4,14.2,14.2v200.8c0,7.8-4.5,9.7-10,4.2L82.9,145.4z"
			/>
	</g>
	<g>
		<path class="st1" d="M312.5,149.6c0-7.8,6.4-14.2,14.2-14.2h86.3c7.8,0,14.2,6.4,14.2,14.2v200.8c0,7.8-4.5,9.7-10,4.2L322.5,260
			c-5.5-5.5-10-16.4-10-24.2V149.6z"/>
	</g>
</g>
</svg>
